hw6.utf8
…
4/20/2020

dogsFull <- readxl::read_xlsx("KIB - Best in Show (public).xlsx", "Best in show full sheet")

## New names:
## * `` -> ...2
## * `` -> ...4
## * `` -> ...5
## * `` -> ...9
## * `` -> ...10
## * ...

dogsFull

## # A tibble: 177 x 75
##    `Best in show?` ...2  `largest value` ...4  ...5  `160` `87`  `26686.0` ...9 
##    <chr>           <lgl> <chr>           <lgl> <chr> <chr> <chr> <chr>     <chr>
##  1 we rated 87 do~ NA    smallest value  NA    <NA>  1     1     15792.0   <NA> 
##  2 Sources - see ~ NA    category        NA    data~ POPU~ POPU~ LIFETIME~ 5 LI~
##  3 Dog breed       NA    American Kenne~ NA    <NA>  1- 1~ rank~ <NA>      in d~
##  4 Border Collie   NA    herding         NA    3.64  45.0  39    20143.0   0.48 
##  5 Border Terrier  NA    terrier         NA    3.61  80.0  61    22638.0   0.14 
##  6 Brittany        NA    sporting        NA    3.54  30.0  30    22589.0   0.16 
##  7 Cairn Terrier   NA    terrier         NA    3.53  59.0  48    21992.0   0.22 
##  8 Welsh Springer~ NA    sporting        NA    3.34  130.0 81    20224.0   0.47 
##  9 English Cocker~ NA    sporting        NA    3.33  63.0  51    18993.0   0.63 
## 10 Cocker Spaniel  NA    sporting        NA    3.3   27.0  27    24330.0   0.09 
## # ... with 167 more rows, and 66 more variables: ...10 <lgl>, `80` <chr>,
## #   ...12 <chr>, `16.5` <chr>, ...14 <chr>, `9` <chr>, ...16 <chr>,
## #   `2680` <chr>, ...18 <chr>, `1348.657931` <chr>, ...20 <chr>,
## #   `3...21` <chr>, ...22 <chr>, `3...23` <chr>, ...24 <chr>, ...25 <lgl>,
## #   ...26 <chr>, ...27 <chr>, ...28 <chr>, ...29 <chr>, ...30 <chr>,
## #   ...31 <lgl>, ...32 <chr>, ...33 <chr>, ...34 <chr>, ...35 <chr>,
## #   ...36 <chr>, ...37 <lgl>, ...38 <chr>, ...39 <chr>, ...40 <chr>,
## #   ...41 <chr>, ...42 <chr>, ...43 <chr>, ...44 <chr>, ...45 <chr>,
## #   ...46 <chr>, ...47 <chr>, ...48 <chr>, ...49 <lgl>, `21150.1884` <chr>,
…
